1 10 20
100 200 125
201 210 89
900 1000 174
10 1 20
999 111 179
1 999999 525
499 500 111
500 500 111
999999 999999 259
1 1 1
2 2 2
1 1000 179
1000 2000 182
3000 4000 238
4000 5000 215
6000 7000 262
7000 8000 252
9000 9999 260
10000 20000 279
20000 30000 308
7 7777 262
30000 40000 324
50000 70000 340
20 21 8
9999 1 262
999999 1 525
999999 888888 507
123123 321321 443
321321 123123 443
2 1 2
55 44 113
44 66 113
789123 921231 525
50 500 144
4004 2002 238
2 8 17
919191 191919 525
2 80000 351
4 613 144
88888 123 351
999999 999998 259
2223 222222 386
4546 4545 140
456 456 36
1 15 20
15 20 21
20 25 24
18 30 112
21 29 112
800 901 179
801 900 179
799 900 179
1 600 144
500 3000 217
2500 200 209
999999 40000 525
20000 68912 340
555 555555 470
42 1 112
876 543 179
888 888 73
5 900000 525
79 80 36
600 650 145
643 743 171
700 870 171
1001 2001 182
666 666 114
421 419 41
989 987 50
18181 92831 351
4423 1392 238
9892 10000 242
4536 3231 238
98291 99923 328
77 7777 262
99 99999 351
88 8887 262
88 88 18
88 87 31
88 89 31
88 999999 525
1739 17239 276
9987 7729 260
1092 2928 217
777 1 171
28283 99929 351
6656 8889 257
123 99098 351
23 77890 351
1 7733 262
5 8864 262
3 7729 262
99 9912 262
88273 2 351
8475 6 262
10383 7 262
7385 5 262
71823 74 340
17264 64 276
10293 8888 260
99812 12334 351
56283 81923 351
12738 89817 351
54627 88716 351
8882 17263 276
999666 444220 525
1209 9829 262
9873 12 262
10101 20 262
1242 241 182
77766 3343 351
