1 10 20
100 200 125
201 210 89
900 1000 174
5 200 125
100 210 125
1 1000 179
1 100 119
200 300 128
300 400 144
400 500 142
500 600 137
600 700 145
700 800 171
800 900 179
1 1 1
2 2 2
1 2 2
2 1 2
1 999999 525
500000 999999 525
27000 28000 259
160000 162000 370
18334 969311 525
81416 795034 509
64639 467359 449
11220 25024 282
900 940 174
850 880 179
750 780 153
320 330 144
58393 45784 340
485 490 142
128000 130000 344
950 970 143
23 50 112
620 645 132
6000 8000 262
645 650 145
700 705 171
310 320 131
555100 555200 346
800 850 135
770 775 153
1000 1 179
47000 48000 314
100 1 119
149 140 117
900 800 179
800 700 171
2342 15343 276
700 800 171
500 400 142
600 500 137
42 62 113
723811 877634 525
580980 379150 470
236580 558822 470
511968 10673 470
901394 819337 525
125486 91746 354
300 200 128
37000 38000 306
100 110 114
110 120 114
120 130 122
130 140 91
140 150 117
150 160 86
160 170 112
170 180 125
180 190 107
190 200 120
210 220 115
220 230 115
230 240 128
4440 4450 184
4450 4460 140
4460 4470 140
168000 170000 334
170000 172000 334
893 4019 238
592000 596000 328
596000 600000 372
35153 45615 324
18947 20615 274
987984 999999 440
12365 56321 340
23654 45632 324
789 987 179
456 654 145
123 321 131
7896 6987 239
7852 287 262
2589 2369 209
1452 1254 177
3256 3652 194
74587 78541 351
96541 14569 351
123654 456321 449
97419 651684 509
78 562 144
58741 69854 335
1793 3971 238
9317 9713 198
7139 7931 239
3179 3971 238
4268 4862 215
8426 8624 203
6248 6842 244
2486 2684 191
